/* TEAM */
	Developer: Rystraum Gamonez & RD Magboo
	Contact:   rdmagboo@gmail.com
	URI:       

/* THANKS */
	Template Design: 10up
	URI:             http://10up.com
	Twitter:         @10up
	
	Template Design: Eric Mann
	URI:             http://eamann.com
	Twitter:         @ericmann
	
/* SITE */
	Created:  2015-02-02
	Template: https://github.com/10up/grunt-wp-theme